{
  "todo": [
    {
      "id": 1,
      "title": "Novine",
      "isCompleted": true
    },
    {
      "id": 2,
      "title": "Cigarete",
      "isCompleted": false
    },
    {
      "id": 3,
      "title": "Kava!",
      "isCompleted": false
    },
    {
      "id": 4,
      "title": "Pecivo",
      "isCompleted": false
    }
  ],
  "todos": []
}